<svg xmlns="http://www.w3.org/2000/svg" width="22.667" height="17" viewBox="0 0 22.667 17">
  <path id="_002-envelope" data-name="002-envelope" d="M20.542,59.882H2.125A2.127,2.127,0,0,0,0,62.007v12.75a2.127,2.127,0,0,0,2.125,2.125H20.542a2.127,2.127,0,0,0,2.125-2.125V62.007A2.127,2.127,0,0,0,20.542,59.882Zm0,1.417a.7.7,0,0,1,.271.055l-9.48,8.216-9.48-8.216a.705.705,0,0,1,.271-.055Zm0,14.167H2.125a.709.709,0,0,1-.708-.708V62.85l9.453,8.192a.709.709,0,0,0,.928,0L21.25,62.85V74.757A.709.709,0,0,1,20.542,75.465Z" transform="translate(0 -59.882)"/>
</svg>
