<?xml version="1.0" encoding="UTF-8" standalone="no"?>
<!DOCTYPE svg PUBLIC "-//W3C//DTD SVG 1.1//EN" "http://www.w3.org/Graphics/SVG/1.1/DTD/svg11.dtd">
<svg version="1.1" id="Layer_1" xmlns="http://www.w3.org/2000/svg" xmlns:xlink="http://www.w3.org/1999/xlink" x="0px" y="0px" width="18px" height="24px" viewBox="0 0 18 24" enable-background="new 0 0 18 24" xml:space="preserve">  <image id="image0" width="18" height="24" x="0" y="0"
    xlink:href="data:image/png;base64,iVBORw0KGgoAAAANSUhEUgAAABIAAAAYCAMAAADAi10DAAAABGdBTUEAALGPC/xhBQAAACBjSFJN
AAB6JgAAgIQAAPoAAACA6AAAdTAAAOpgAAA6mAAAF3CculE8AAAATlBMVEUAAAD0zXj0zXn1zXj/
z4D3z3j1zHn1zHj1zXn1zHn1zXj3z3j1zXj2zHf0zHj0z3r0zXn0zXj1zXj2zXn1zHn1zXj1zHn0
zHn1zXn///9+0UXMAAAAGHRSTlMAYO+fEECvsOCg3yB/b/AwwJCAcM/QUF+OA2crAAAAAWJLR0QZ
7G61iAAAAAd0SU1FB+QDGAkaMAopB2wAAACiSURBVBjTZZDZEoMgDEUDgmKpbFWa///ShqAs07zk
ziHbBUBIXBSMoZFindBWEOoRGUb7iJjg6x8hL7Dvo2SHbZinLImFhpQsIgKk1vhhcdZqCmj1zxWh
LyIlEK/oaV1HoJU91tsZoinIn6TE07jBfU5RFQk24Or8i5FllGpVan0UOxp69CrHYEf/VsrlO38v
+8kTCn34iMJEijGnZwQ5ec4/OhMRJbUn33YAAAAldEVYdGRhdGU6Y3JlYXRlADIwMjAtMDMtMjRU
MDk6MjY6NDgrMDM6MDDYMBAGAAAAJXRFWHRkYXRlOm1vZGlmeQAyMDIwLTAzLTI0VDA5OjI2OjQ4
KzAzOjAwqW2ougAAAABJRU5ErkJggg==" />
</svg>
