<svg id="phone" xmlns="http://www.w3.org/2000/svg" width="15.711" height="15.711" viewBox="0 0 15.711 15.711">
  <g id="Group_912" data-name="Group 912">
    <path id="Path_1884" data-name="Path 1884" d="M14.451,10.313a8.92,8.92,0,0,1-2.8-.446,1.28,1.28,0,0,0-1.245.263L8.637,11.463A9.763,9.763,0,0,1,4.248,7.074L5.542,5.354a1.27,1.27,0,0,0,.312-1.287,8.934,8.934,0,0,1-.448-2.806A1.262,1.262,0,0,0,4.146,0H1.261A1.262,1.262,0,0,0,0,1.261,14.467,14.467,0,0,0,14.451,15.711a1.262,1.262,0,0,0,1.261-1.261V11.573A1.262,1.262,0,0,0,14.451,10.313Z" fill="#dedede"/>
  </g>
</svg>
